{"installed":
  {"client_id":"46876617751-3qc1uqgdk0o902l2p7qcq0vlid8hajtr.apps.googleusercontent.com",
  "project_id":"fanated",
  "auth_uri":"https://accounts.google.com/o/oauth2/auth",
  "token_uri":"https://oauth2.googleapis.com/token",
  "auth_provider_x509_cert_url":"https://www.googleapis.com/oauth2/v1/certs",
  "client_secret":"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",
  "redirect_uris":["http://localhost"]
  }
}